<?xml version="1.0" encoding="UTF-8" standalone="no"?>
<svg
   width="326.20435mm"
   height="277.40796mm"
   viewBox="0 0 326.20435 277.40795"
   version="1.1"
   id="svg8"
   inkscape:version="1.1.1 (1:1.1+202109281949+c3084ef5ed)"
   sodipodi:docname="parallelsum.svg"
   inkscape:export-filename="/home/top/Documents/work/code/lightnet/docs/.static/api/parallel.png"
   inkscape:export-xdpi="191.97293"
   inkscape:export-ydpi="191.97293"
   xmlns:inkscape="http://www.inkscape.org/namespaces/inkscape"
   xmlns:sodipodi="http://sodipodi.sourceforge.net/DTD/sodipodi-0.dtd"
   xmlns="http://www.w3.org/2000/svg"
   xmlns:svg="http://www.w3.org/2000/svg"
   xmlns:rdf="http://www.w3.org/1999/02/22-rdf-syntax-ns#"
   xmlns:cc="http://creativecommons.org/ns#"
   xmlns:dc="http://purl.org/dc/elements/1.1/">
  <defs
     id="defs2" />
  <sodipodi:namedview
     id="base"
     pagecolor="#ffffff"
     bordercolor="#666666"
     borderopacity="1.0"
     inkscape:pageopacity="1"
     inkscape:pageshadow="2"
     inkscape:zoom="0.49679969"
     inkscape:cx="523.34976"
     inkscape:cy="517.31111"
     inkscape:document-units="mm"
     inkscape:current-layer="layer1"
     inkscape:document-rotation="0"
     showgrid="false"
     inkscape:snap-bbox="true"
     inkscape:bbox-nodes="false"
     inkscape:snap-object-midpoints="false"
     inkscape:object-paths="true"
     inkscape:snap-intersection-paths="true"
     inkscape:snap-smooth-nodes="true"
     inkscape:snap-midpoints="true"
     inkscape:bbox-paths="true"
     lock-margins="true"
     fit-margin-top="5"
     fit-margin-left="50"
     fit-margin-right="50"
     fit-margin-bottom="5"
     inkscape:window-width="1875"
     inkscape:window-height="1035"
     inkscape:window-x="45"
     inkscape:window-y="45"
     inkscape:window-maximized="1"
     inkscape:pagecheckerboard="0" />
  <metadata
     id="metadata5">
    <rdf:RDF>
      <cc:Work
         rdf:about="">
        <dc:format>image/svg+xml</dc:format>
        <dc:type
           rdf:resource="http://purl.org/dc/dcmitype/StillImage" />
      </cc:Work>
    </rdf:RDF>
  </metadata>
  <g
     inkscape:label="Layer 1"
     inkscape:groupmode="layer"
     id="layer1"
     transform="translate(61.160612,0.43883592)">
    <path
       style="fill:none;stroke:#8c8c8c;stroke-width:0.793747;stroke-linecap:butt;stroke-linejoin:miter;stroke-miterlimit:4;stroke-dasharray:none;stroke-opacity:1"
       d="m 101.94156,232.05629 v 13.23054"
       id="path917" />
    <path
       id="path992"
       d="m 101.94156,199.77692 v 13.23054"
       style="fill:none;stroke:#8c8c8c;stroke-width:0.793747;stroke-linecap:butt;stroke-linejoin:miter;stroke-miterlimit:4;stroke-dasharray:none;stroke-opacity:1" />
    <path
       style="fill:none;stroke:#8c8c8c;stroke-width:0.793747;stroke-linecap:butt;stroke-linejoin:miter;stroke-miterlimit:4;stroke-dasharray:none;stroke-opacity:1"
       d="m 101.94156,160.08938 v 13.23054"
       id="path950" />
    <g
       id="g930">
      <path
         style="fill:none;stroke:#8c8c8c;stroke-width:0.793747;stroke-linecap:butt;stroke-linejoin:miter;stroke-miterlimit:4;stroke-dasharray:none;stroke-opacity:1"
         d="M 22.566559,43.672687 V 56.90322"
         id="path902" />
      <path
         id="path926"
         d="M 181.31657,43.722687 V 56.903221"
         style="fill:none;stroke:#8c8c8c;stroke-width:0.793747;stroke-linecap:butt;stroke-linejoin:miter;stroke-miterlimit:4;stroke-dasharray:none;stroke-opacity:1" />
      <path
         id="path884"
         d="M 101.94156,30.444888 V 56.90322"
         style="fill:none;stroke:#8c8c8c;stroke-width:0.79375;stroke-linecap:butt;stroke-linejoin:miter;stroke-miterlimit:4;stroke-dasharray:none;stroke-opacity:1" />
      <path
         style="fill:none;stroke:#8c8c8c;stroke-width:0.793749;stroke-linecap:butt;stroke-linejoin:miter;stroke-miterlimit:4;stroke-dasharray:none;stroke-opacity:1"
         d="M 181.71341,43.722687 H 22.170452"
         id="path900" />
    </g>
    <g
       transform="matrix(1,0,0,-1,0,171.48561)"
       id="g940">
      <path
         id="path932"
         d="M 22.566559,43.672687 V 56.90322"
         style="fill:none;stroke:#8c8c8c;stroke-width:0.793747;stroke-linecap:butt;stroke-linejoin:miter;stroke-miterlimit:4;stroke-dasharray:none;stroke-opacity:1" />
      <path
         style="fill:none;stroke:#8c8c8c;stroke-width:0.793747;stroke-linecap:butt;stroke-linejoin:miter;stroke-miterlimit:4;stroke-dasharray:none;stroke-opacity:1"
         d="M 181.31657,43.722687 V 56.903221"
         id="path934" />
      <path
         style="fill:none;stroke:#8c8c8c;stroke-width:0.79375;stroke-linecap:butt;stroke-linejoin:miter;stroke-miterlimit:4;stroke-dasharray:none;stroke-opacity:1"
         d="M 101.94156,30.444888 V 56.90322"
         id="path936" />
      <path
         id="path938"
         d="M 181.71341,43.722687 H 22.170452"
         style="fill:none;stroke:#8c8c8c;stroke-width:0.793749;stroke-linecap:butt;stroke-linejoin:miter;stroke-miterlimit:4;stroke-dasharray:none;stroke-opacity:1" />
    </g>
    <path
       style="fill:none;stroke:#8c8c8c;stroke-width:0.793747;stroke-linecap:butt;stroke-linejoin:miter;stroke-miterlimit:4;stroke-dasharray:none;stroke-opacity:1"
       d="M 22.566559,75.422707 V 88.65324"
       id="path978" />
    <path
       id="path980"
       d="M 101.94156,75.422707 V 88.65324"
       style="fill:none;stroke:#8c8c8c;stroke-width:0.793747;stroke-linecap:butt;stroke-linejoin:miter;stroke-miterlimit:4;stroke-dasharray:none;stroke-opacity:1" />
    <path
       style="fill:none;stroke:#8c8c8c;stroke-width:0.793747;stroke-linecap:butt;stroke-linejoin:miter;stroke-miterlimit:4;stroke-dasharray:none;stroke-opacity:1"
       d="M 181.31657,75.422707 V 88.65324"
       id="path982" />
    <g
       id="g13365">
      <rect
         style="fill:#4c72b0;stroke:#4c72b0;stroke-width:1.32291;stroke-linecap:round;stroke-miterlimit:4;stroke-dasharray:none"
         id="rect854"
         width="66.131432"
         height="18.372215"
         x="-10.499157"
         y="56.773376" />
      <g
         aria-label="MODULE 1"
         id="text858"
         style="font-size:8.46667px;line-height:1;font-family:Roboto;-inkscape-font-specification:'Roboto, Normal';letter-spacing:0px;word-spacing:0px;fill:#ffffff;stroke-width:0.264583">
        <path
           d="M 0.95753303,62.86923 H 2.201902 l 1.5750983,4.200262 1.5833665,-4.200262 h 1.244369 v 6.172236 H 5.7903149 V 63.621639 L 4.1986801,67.854974 H 3.3594546 L 1.7678198,63.621639 v 5.419827 H 0.95753303 Z"
           id="path13682" />
        <path
           d="m 10.767791,63.435604 q -0.909506,0 -1.4469411,0.677995 -0.533301,0.677995 -0.533301,1.84795 0,1.165821 0.533301,1.843816 0.5374351,0.677995 1.4469411,0.677995 0.909505,0 1.438672,-0.677995 0.533301,-0.677995 0.533301,-1.843816 0,-1.169955 -0.533301,-1.84795 -0.529167,-0.677995 -1.438672,-0.677995 z m 0,-0.677995 q 1.298112,0 2.075326,0.872299 0.777214,0.868164 0.777214,2.331641 0,1.459343 -0.777214,2.331642 -0.777214,0.868164 -2.075326,0.868164 -1.302247,0 -2.083595,-0.868164 -0.7772138,-0.868165 -0.7772138,-2.331642 0,-1.463477 0.7772138,-2.331641 0.781348,-0.872299 2.083595,-0.872299 z"
           id="path13684" />
        <path
           d="m 15.761804,63.555494 v 4.799708 h 1.008724 q 1.277442,0 1.868621,-0.578776 0.595312,-0.578776 0.595312,-1.827279 0,-1.240235 -0.595312,-1.814877 -0.591179,-0.578776 -1.868621,-0.578776 z M 14.926712,62.86923 h 1.715658 q 1.794207,0 2.633432,0.748275 0.839226,0.744141 0.839226,2.331642 0,1.595769 -0.84336,2.344044 -0.843359,0.748275 -2.629298,0.748275 h -1.715658 z"
           id="path13686" />
        <path
           d="m 21.351128,62.86923 h 0.839226 v 3.749644 q 0,0.992188 0.359668,1.430404 0.359668,0.434082 1.165821,0.434082 0.802018,0 1.161686,-0.434082 0.359668,-0.438216 0.359668,-1.430404 V 62.86923 h 0.839226 v 3.852997 q 0,1.207161 -0.599447,1.823145 -0.595313,0.615983 -1.761133,0.615983 -1.169955,0 -1.769402,-0.615983 -0.595313,-0.615984 -0.595313,-1.823145 z"
           id="path13688" />
        <path
           d="m 27.643253,62.86923 h 0.835092 v 5.469436 h 3.005502 v 0.7028 h -3.840594 z"
           id="path13690" />
        <path
           d="m 32.360279,62.86923 h 3.902606 v 0.7028 h -3.067514 v 1.827279 h 2.939356 v 0.7028 h -2.939356 v 2.236557 h 3.141928 v 0.7028 h -3.97702 z"
           id="path13692" />
        <path
           d="m 40.620245,68.338666 h 1.364258 v -4.708758 l -1.484148,0.297656 v -0.760677 l 1.47588,-0.297657 h 0.835091 v 5.469436 h 1.364259 v 0.7028 h -3.55534 z"
           id="path13694" />
      </g>
    </g>
    <g
       id="g13373">
      <rect
         y="56.773376"
         x="68.875847"
         height="18.372215"
         width="66.131432"
         id="rect862"
         style="fill:#4c72b0;stroke:#4c72b0;stroke-width:1.32291;stroke-linecap:round;stroke-miterlimit:4;stroke-dasharray:none" />
      <g
         aria-label="MODULE 2"
         id="text866"
         style="font-size:8.46667px;line-height:1;font-family:Roboto;-inkscape-font-specification:'Roboto, Normal';letter-spacing:0px;word-spacing:0px;fill:#ffffff;stroke-width:0.264583">
        <path
           d="m 80.36561,62.86923 h 1.244369 l 1.575098,4.200262 1.583367,-4.200262 h 1.244369 v 6.172236 h -0.814421 v -5.419827 l -1.591635,4.233335 h -0.839225 l -1.591635,-4.233335 v 5.419827 H 80.36561 Z"
           id="path13697" />
        <path
           d="m 90.175868,63.435604 q -0.909506,0 -1.446941,0.677995 -0.533301,0.677995 -0.533301,1.84795 0,1.165821 0.533301,1.843816 0.537435,0.677995 1.446941,0.677995 0.909505,0 1.438672,-0.677995 0.533301,-0.677995 0.533301,-1.843816 0,-1.169955 -0.533301,-1.84795 -0.529167,-0.677995 -1.438672,-0.677995 z m 0,-0.677995 q 1.298112,0 2.075326,0.872299 0.777214,0.868164 0.777214,2.331641 0,1.459343 -0.777214,2.331642 -0.777214,0.868164 -2.075326,0.868164 -1.302247,0 -2.083595,-0.868164 -0.777214,-0.868165 -0.777214,-2.331642 0,-1.463477 0.777214,-2.331641 0.781348,-0.872299 2.083595,-0.872299 z"
           id="path13699" />
        <path
           d="m 95.169881,63.555494 v 4.799708 h 1.008724 q 1.277442,0 1.868621,-0.578776 0.595312,-0.578776 0.595312,-1.827279 0,-1.240235 -0.595312,-1.814877 -0.591179,-0.578776 -1.868621,-0.578776 z M 94.334789,62.86923 h 1.715658 q 1.794207,0 2.633432,0.748275 0.839226,0.744141 0.839226,2.331642 0,1.595769 -0.84336,2.344044 -0.843359,0.748275 -2.629298,0.748275 h -1.715658 z"
           id="path13701" />
        <path
           d="m 100.75921,62.86923 h 0.83922 v 3.749644 q 0,0.992188 0.35967,1.430404 0.35967,0.434082 1.16582,0.434082 0.80202,0 1.16169,-0.434082 0.35966,-0.438216 0.35966,-1.430404 V 62.86923 h 0.83923 v 3.852997 q 0,1.207161 -0.59945,1.823145 -0.59531,0.615983 -1.76113,0.615983 -1.16996,0 -1.7694,-0.615983 -0.59531,-0.615984 -0.59531,-1.823145 z"
           id="path13703" />
        <path
           d="m 107.05133,62.86923 h 0.83509 v 5.469436 h 3.0055 v 0.7028 h -3.84059 z"
           id="path13705" />
        <path
           d="m 111.76836,62.86923 h 3.9026 v 0.7028 h -3.06751 v 1.827279 h 2.93935 v 0.7028 h -2.93935 v 2.236557 h 3.14193 v 0.7028 h -3.97702 z"
           id="path13707" />
        <path
           d="m 120.60296,68.338666 h 2.91456 v 0.7028 h -3.91915 v -0.7028 q 0.47543,-0.49196 1.29398,-1.318783 0.82269,-0.830957 1.03353,-1.070736 0.40101,-0.450619 0.55811,-0.760678 0.16123,-0.314192 0.16123,-0.615983 0,-0.49196 -0.34727,-0.802018 -0.34313,-0.310059 -0.8971,-0.310059 -0.39274,0 -0.83096,0.136426 -0.43408,0.136426 -0.93018,0.413411 v -0.843359 q 0.50437,-0.202572 0.94258,-0.305925 0.43822,-0.103353 0.80202,-0.103353 0.95912,0 1.52962,0.479558 0.57051,0.479557 0.57051,1.281576 0,0.380338 -0.14469,0.72347 -0.14056,0.338997 -0.51677,0.802018 -0.10335,0.11989 -0.65732,0.694532 -0.55397,0.570508 -1.5627,1.599903 z"
           id="path13709" />
      </g>
    </g>
    <g
       id="g13381">
      <rect
         style="fill:#4c72b0;stroke:#4c72b0;stroke-width:1.32291;stroke-linecap:round;stroke-miterlimit:4;stroke-dasharray:none"
         id="rect870"
         width="66.131432"
         height="18.372215"
         x="148.25085"
         y="56.773376" />
      <g
         aria-label="MODULE 3"
         id="text874"
         style="font-size:8.46667px;line-height:1;font-family:Roboto;-inkscape-font-specification:'Roboto, Normal';letter-spacing:0px;word-spacing:0px;fill:#ffffff;stroke-width:0.264583">
        <path
           d="m 159.65586,62.86923 h 1.24437 l 1.5751,4.200262 1.58337,-4.200262 h 1.24437 v 6.172236 h -0.81443 v -5.419827 l -1.59163,4.233335 h -0.83923 l -1.59163,-4.233335 v 5.419827 h -0.81029 z"
           id="path13712" />
        <path
           d="m 169.46612,63.435604 q -0.90951,0 -1.44694,0.677995 -0.5333,0.677995 -0.5333,1.84795 0,1.165821 0.5333,1.843816 0.53743,0.677995 1.44694,0.677995 0.90951,0 1.43867,-0.677995 0.5333,-0.677995 0.5333,-1.843816 0,-1.169955 -0.5333,-1.84795 -0.52916,-0.677995 -1.43867,-0.677995 z m 0,-0.677995 q 1.29811,0 2.07533,0.872299 0.77721,0.868164 0.77721,2.331641 0,1.459343 -0.77721,2.331642 -0.77722,0.868164 -2.07533,0.868164 -1.30225,0 -2.08359,-0.868164 -0.77722,-0.868165 -0.77722,-2.331642 0,-1.463477 0.77722,-2.331641 0.78134,-0.872299 2.08359,-0.872299 z"
           id="path13714" />
        <path
           d="m 174.46013,63.555494 v 4.799708 h 1.00873 q 1.27744,0 1.86862,-0.578776 0.59531,-0.578776 0.59531,-1.827279 0,-1.240235 -0.59531,-1.814877 -0.59118,-0.578776 -1.86862,-0.578776 z m -0.83509,-0.686264 h 1.71566 q 1.79421,0 2.63343,0.748275 0.83923,0.744141 0.83923,2.331642 0,1.595769 -0.84336,2.344044 -0.84336,0.748275 -2.6293,0.748275 h -1.71566 z"
           id="path13716" />
        <path
           d="m 180.04946,62.86923 h 0.83922 v 3.749644 q 0,0.992188 0.35967,1.430404 0.35967,0.434082 1.16582,0.434082 0.80202,0 1.16169,-0.434082 0.35967,-0.438216 0.35967,-1.430404 V 62.86923 h 0.83922 v 3.852997 q 0,1.207161 -0.59944,1.823145 -0.59532,0.615983 -1.76114,0.615983 -1.16995,0 -1.7694,-0.615983 -0.59531,-0.615984 -0.59531,-1.823145 z"
           id="path13718" />
        <path
           d="m 186.34158,62.86923 h 0.83509 v 5.469436 h 3.00551 v 0.7028 h -3.8406 z"
           id="path13720" />
        <path
           d="m 191.05861,62.86923 h 3.9026 v 0.7028 h -3.06751 v 1.827279 h 2.93936 v 0.7028 h -2.93936 v 2.236557 h 3.14193 v 0.7028 h -3.97702 z"
           id="path13722" />
        <path
           d="m 201.70396,65.713502 q 0.59945,0.128158 0.93431,0.533301 0.339,0.405144 0.339,1.000456 0,0.91364 -0.62839,1.413868 -0.62838,0.500228 -1.78594,0.500228 -0.3886,0 -0.80202,-0.07855 -0.40927,-0.07441 -0.84749,-0.227376 v -0.806153 q 0.34727,0.202572 0.76068,0.305924 0.41341,0.103353 0.86403,0.103353 0.78548,0 1.19476,-0.310058 0.41341,-0.310059 0.41341,-0.901238 0,-0.545703 -0.38447,-0.851628 -0.38034,-0.310058 -1.06247,-0.310058 h -0.71934 v -0.686264 h 0.75241 q 0.61599,0 0.94258,-0.243912 0.3266,-0.248047 0.3266,-0.711068 0,-0.475424 -0.339,-0.727605 -0.33487,-0.256315 -0.96325,-0.256315 -0.34313,0 -0.73587,0.07441 -0.39274,0.07441 -0.86403,0.23151 v -0.74414 q 0.47542,-0.132292 0.88883,-0.198438 0.41755,-0.06615 0.78548,-0.06615 0.95085,0 1.50482,0.434082 0.55397,0.429948 0.55397,1.165821 0,0.51263 -0.29352,0.868164 -0.29352,0.3514 -0.83509,0.487826 z"
           id="path13724" />
      </g>
    </g>
    <g
       id="g13357">
      <rect
         style="fill:none;stroke:#000000;stroke-width:1.32291;stroke-linecap:round;stroke-miterlimit:4;stroke-dasharray:none"
         id="rect833"
         width="66.131432"
         height="25.449381"
         x="68.875847"
         y="5.2226191" />
      <g
         aria-label="INPUT"
         id="text839"
         style="font-size:8.46667px;line-height:1;font-family:Roboto;-inkscape-font-specification:'Roboto, Normal';letter-spacing:0px;word-spacing:0px;stroke-width:0.264583">
        <path
           d="m 89.692179,11.615671 h 0.835091 v 6.172236 h -0.835091 z"
           id="path13727" />
        <path
           d="m 92.189185,11.615671 h 1.124479 l 2.736785,5.163511 v -5.163511 h 0.810287 v 6.172236 h -1.124479 l -2.736785,-5.163512 v 5.163512 h -0.810287 z"
           id="path13729" />
        <path
           d="m 99.357742,12.301934 v 2.31924 h 1.050068 q 0.58291,0 0.90124,-0.301791 0.31832,-0.30179 0.31832,-0.859896 0,-0.553972 -0.31832,-0.855762 -0.31833,-0.301791 -0.90124,-0.301791 z m -0.835091,-0.686263 h 1.885159 q 1.03766,0 1.56683,0.471289 0.5333,0.467156 0.5333,1.372527 0,0.91364 -0.5333,1.380795 -0.52917,0.467155 -1.56683,0.467155 h -1.050068 v 2.48047 h -0.835091 z"
           id="path13731" />
        <path
           d="m 103.5332,11.615671 h 0.83923 v 3.749644 q 0,0.992187 0.35966,1.430404 0.35967,0.434082 1.16582,0.434082 0.80202,0 1.16169,-0.434082 0.35967,-0.438217 0.35967,-1.430404 v -3.749644 h 0.83922 v 3.852996 q 0,1.207162 -0.59944,1.823146 -0.59532,0.615983 -1.76114,0.615983 -1.16995,0 -1.7694,-0.615983 -0.59531,-0.615984 -0.59531,-1.823146 z"
           id="path13733" />
        <path
           d="m 108.96956,11.615671 h 5.22139 v 0.7028 h -2.19108 v 5.469436 h -0.83923 v -5.469436 h -2.19108 z"
           id="path13735" />
      </g>
      <g
         aria-label="in_channels"
         id="text872"
         style="font-size:4.23333px;line-height:1;font-family:Roboto;-inkscape-font-specification:'Roboto, Normal';letter-spacing:0px;word-spacing:0px;stroke-width:0.264583">
        <path
           d="m 89.777978,25.49195 h 0.380338 v 2.315103 h -0.380338 z m 0,-0.901236 h 0.380338 v 0.481624 h -0.380338 z"
           style="fill:#8c8c8c"
           id="path13738" />
        <path
           d="m 92.878561,26.409723 v 1.39733 h -0.380338 v -1.384928 q 0,-0.328661 -0.128158,-0.491959 -0.128157,-0.163297 -0.384472,-0.163297 -0.307991,0 -0.485758,0.19637 -0.177767,0.19637 -0.177767,0.535367 v 1.308447 H 90.939663 V 25.49195 h 0.382405 v 0.359668 q 0.136426,-0.208773 0.320394,-0.312125 0.186035,-0.103353 0.42788,-0.103353 0.398942,0 0.603581,0.248047 0.204638,0.245979 0.204638,0.725536 z"
           style="fill:#8c8c8c"
           id="path13740" />
        <path
           d="M 95.396235,28.509852 V 28.80544 H 93.196887 V 28.509852 Z"
           style="fill:#8c8c8c"
           id="path13742" />
        <path
           d="m 97.419882,25.580834 v 0.355533 q -0.16123,-0.08888 -0.324528,-0.132291 -0.16123,-0.04547 -0.326594,-0.04547 -0.370003,0 -0.574642,0.235644 -0.204638,0.233577 -0.204638,0.657324 0,0.423746 0.204638,0.65939 0.204639,0.233578 0.574642,0.233578 0.165364,0 0.326594,-0.04341 0.163298,-0.04547 0.324528,-0.134358 v 0.351399 q -0.159163,0.07441 -0.330729,0.111621 -0.169498,0.03721 -0.361734,0.03721 -0.522965,0 -0.830957,-0.328662 -0.307991,-0.328661 -0.307991,-0.886766 0,-0.566374 0.310058,-0.890901 0.312126,-0.324528 0.853694,-0.324528 0.1757,0 0.343131,0.03721 0.167432,0.03514 0.324528,0.107487 z"
           style="fill:#8c8c8c"
           id="path13744" />
        <path
           d="m 100.00577,26.409723 v 1.39733 h -0.38034 v -1.384928 q 0,-0.328661 -0.128157,-0.491959 -0.128158,-0.163297 -0.384473,-0.163297 -0.307991,0 -0.485758,0.19637 -0.177767,0.19637 -0.177767,0.535367 v 1.308447 H 98.06687 v -3.216339 h 0.382405 v 1.260904 q 0.136426,-0.208773 0.320394,-0.312125 0.186035,-0.103353 0.427881,-0.103353 0.398941,0 0.60358,0.248047 0.20464,0.245979 0.20464,0.725536 z"
           style="fill:#8c8c8c"
           id="path13746" />
        <path
           d="m 101.81651,26.6433 q -0.46095,0 -0.63872,0.10542 -0.17777,0.10542 -0.17777,0.359668 0,0.202571 0.13229,0.322461 0.13436,0.117822 0.36381,0.117822 0.31626,0 0.50642,-0.223242 0.19224,-0.225309 0.19224,-0.597379 V 26.6433 Z m 0.75861,-0.157096 v 1.320849 h -0.38034 v -0.3514 q -0.13022,0.21084 -0.32453,0.312126 -0.1943,0.09922 -0.47542,0.09922 -0.35553,0 -0.56637,-0.198437 -0.20878,-0.200504 -0.20878,-0.535367 0,-0.390674 0.26045,-0.589111 0.26252,-0.198438 0.78135,-0.198438 h 0.5333 v -0.03721 q 0,-0.262516 -0.17363,-0.405143 -0.17157,-0.144693 -0.48369,-0.144693 -0.19844,0 -0.38654,0.04754 -0.1881,0.04754 -0.36174,0.142627 v -0.3514 q 0.20878,-0.08062 0.40515,-0.119889 0.19637,-0.04134 0.3824,-0.04134 0.5023,0 0.75034,0.260449 0.24805,0.260449 0.24805,0.789615 z"
           style="fill:#8c8c8c"
           id="path13748" />
        <path
           d="m 105.28296,26.409723 v 1.39733 h -0.38034 v -1.384928 q 0,-0.328661 -0.12815,-0.491959 -0.12816,-0.163297 -0.38448,-0.163297 -0.30799,0 -0.48575,0.19637 -0.17777,0.19637 -0.17777,0.535367 v 1.308447 h -0.38241 V 25.49195 h 0.38241 v 0.359668 q 0.13642,-0.208773 0.32039,-0.312125 0.18604,-0.103353 0.42788,-0.103353 0.39894,0 0.60358,0.248047 0.20464,0.245979 0.20464,0.725536 z"
           style="fill:#8c8c8c"
           id="path13750" />
        <path
           d="m 107.966,26.409723 v 1.39733 h -0.38034 v -1.384928 q 0,-0.328661 -0.12816,-0.491959 -0.12815,-0.163297 -0.38447,-0.163297 -0.30799,0 -0.48576,0.19637 -0.17776,0.19637 -0.17776,0.535367 v 1.308447 H 106.0271 V 25.49195 h 0.38241 v 0.359668 q 0.13642,-0.208773 0.32039,-0.312125 0.18604,-0.103353 0.42788,-0.103353 0.39894,0 0.60358,0.248047 0.20464,0.245979 0.20464,0.725536 z"
           style="fill:#8c8c8c"
           id="path13752" />
        <path
           d="m 110.70485,26.554417 v 0.186035 h -1.74873 q 0.0248,0.392741 0.23564,0.599446 0.21291,0.204639 0.59118,0.204639 0.21911,0 0.42375,-0.05374 0.2067,-0.05374 0.40927,-0.16123 v 0.359667 q -0.20463,0.08682 -0.41961,0.132292 -0.21497,0.04547 -0.43615,0.04547 -0.55397,0 -0.8785,-0.32246 -0.32246,-0.322461 -0.32246,-0.872298 0,-0.56844 0.30593,-0.901236 0.30799,-0.334863 0.82889,-0.334863 0.46715,0 0.73794,0.30179 0.27285,0.299723 0.27285,0.816487 z m -0.38034,-0.111621 q -0.004,-0.312125 -0.1757,-0.49816 -0.1695,-0.186035 -0.45062,-0.186035 -0.31833,0 -0.51056,0.179833 -0.19017,0.179834 -0.21911,0.506429 z"
           style="fill:#8c8c8c"
           id="path13754" />
        <path
           d="m 111.3291,24.590714 h 0.38034 v 3.216339 h -0.38034 z"
           style="fill:#8c8c8c"
           id="path13756" />
        <path
           d="m 113.98113,25.560163 v 0.359668 q -0.16123,-0.08268 -0.33486,-0.124023 -0.17363,-0.04134 -0.35967,-0.04134 -0.28319,0 -0.42581,0.08682 -0.14056,0.08682 -0.14056,0.260449 0,0.132291 0.10128,0.208772 0.10129,0.07441 0.40721,0.142627 l 0.13023,0.02894 q 0.40514,0.08682 0.57464,0.24598 0.17156,0.157096 0.17156,0.440282 0,0.322461 -0.25631,0.510563 -0.25425,0.188102 -0.70073,0.188102 -0.18604,0 -0.38861,-0.03721 -0.2005,-0.03514 -0.42375,-0.107487 v -0.39274 q 0.21084,0.109554 0.41548,0.165364 0.20464,0.05374 0.40515,0.05374 0.26871,0 0.41341,-0.09095 0.14469,-0.09302 0.14469,-0.260449 0,-0.155029 -0.10542,-0.237711 -0.10335,-0.08268 -0.45682,-0.159163 l -0.13229,-0.03101 q -0.35347,-0.07441 -0.51056,-0.227376 -0.1571,-0.15503 -0.1571,-0.423747 0,-0.326595 0.23151,-0.504361 0.23151,-0.177767 0.65733,-0.177767 0.21083,0 0.39687,0.03101 0.18603,0.03101 0.34313,0.09302 z"
           style="fill:#8c8c8c"
           id="path13758" />
      </g>
    </g>
    <g
       id="g13398">
      <rect
         y="88.696281"
         x="68.875847"
         height="25.449089"
         width="66.131432"
         id="rect946"
         style="fill:none;stroke:#8c8c8c;stroke-width:1.32291;stroke-linecap:round;stroke-miterlimit:4;stroke-dasharray:none" />
      <g
         aria-label="OUTPUT 2"
         id="text950"
         style="font-size:8.46667px;line-height:1;font-family:Roboto;-inkscape-font-specification:'Roboto, Normal';letter-spacing:0px;word-spacing:0px;stroke-width:0.264583">
        <path
           d="m 84.171063,96.038555 q -0.909506,0 -1.446941,0.677995 -0.533301,0.677995 -0.533301,1.84795 0,1.165821 0.533301,1.84382 0.537435,0.67799 1.446941,0.67799 0.909506,0 1.438672,-0.67799 0.533301,-0.677999 0.533301,-1.84382 0,-1.169955 -0.533301,-1.84795 -0.529166,-0.677995 -1.438672,-0.677995 z m 0,-0.677995 q 1.298113,0 2.075326,0.872299 0.777214,0.868164 0.777214,2.331641 0,1.45934 -0.777214,2.33164 -0.777213,0.86817 -2.075326,0.86817 -1.302247,0 -2.083595,-0.86817 -0.777213,-0.86816 -0.777213,-2.33164 0,-1.463477 0.777213,-2.331641 0.781348,-0.872299 2.083595,-0.872299 z"
           id="path13761" />
        <path
           d="m 88.234899,95.472181 h 0.839226 v 3.749644 q 0,0.992185 0.359668,1.430405 0.359668,0.43408 1.165821,0.43408 0.802018,0 1.161687,-0.43408 0.359668,-0.43822 0.359668,-1.430405 v -3.749644 h 0.839225 v 3.852997 q 0,1.207162 -0.599447,1.823142 -0.595312,0.61599 -1.761133,0.61599 -1.169955,0 -1.769402,-0.61599 -0.595313,-0.61598 -0.595313,-1.823142 z"
           id="path13763" />
        <path
           d="m 93.671262,95.472181 h 5.221389 v 0.7028 h -2.191082 v 5.469439 h -0.839225 v -5.469439 h -2.191082 z"
           id="path13765" />
        <path
           d="m 100.5339,96.158445 v 2.319239 h 1.05006 q 0.58291,0 0.90124,-0.301791 0.31833,-0.30179 0.31833,-0.859896 0,-0.553971 -0.31833,-0.855762 -0.31833,-0.30179 -0.90124,-0.30179 z m -0.835095,-0.686264 h 1.885155 q 1.03766,0 1.56683,0.47129 0.5333,0.467155 0.5333,1.372526 0,0.91364 -0.5333,1.380795 -0.52917,0.467155 -1.56683,0.467155 h -1.05006 v 2.480473 h -0.835095 z"
           id="path13767" />
        <path
           d="m 104.70935,95.472181 h 0.83923 v 3.749644 q 0,0.992185 0.35967,1.430405 0.35966,0.43408 1.16582,0.43408 0.80202,0 1.16168,-0.43408 0.35967,-0.43822 0.35967,-1.430405 v -3.749644 h 0.83923 v 3.852997 q 0,1.207162 -0.59945,1.823142 -0.59531,0.61599 -1.76113,0.61599 -1.16996,0 -1.7694,-0.61599 -0.59532,-0.61598 -0.59532,-1.823142 z"
           id="path13769" />
        <path
           d="m 110.14572,95.472181 h 5.22138 v 0.7028 h -2.19108 v 5.469439 h -0.83922 v -5.469439 h -2.19108 z"
           id="path13771" />
        <path
           d="m 119.65832,100.94162 h 2.91455 v 0.7028 h -3.91914 v -0.7028 q 0.47542,-0.49196 1.29398,-1.318786 0.82269,-0.830957 1.03353,-1.070736 0.40101,-0.450619 0.5581,-0.760678 0.16123,-0.314192 0.16123,-0.615983 0,-0.49196 -0.34726,-0.802018 -0.34314,-0.310059 -0.89711,-0.310059 -0.39274,0 -0.83095,0.136426 -0.43409,0.136426 -0.93018,0.413411 v -0.843359 q 0.50436,-0.202572 0.94258,-0.305925 0.43821,-0.103353 0.80202,-0.103353 0.95911,0 1.52962,0.479558 0.57051,0.479557 0.57051,1.281576 0,0.380338 -0.1447,0.72347 -0.14056,0.338998 -0.51676,0.802019 -0.10335,0.119889 -0.65733,0.694531 -0.55397,0.570508 -1.56269,1.599906 z"
           id="path13773" />
      </g>
      <g
         aria-label="channels"
         id="text920"
         style="font-size:3.88056px;line-height:1;font-family:Roboto;-inkscape-font-specification:'Roboto, Normal';letter-spacing:0px;word-spacing:0px;stroke-width:0.264583">
        <path
           d="m 95.133533,109.23973 v 0.32591 q -0.147794,-0.0815 -0.297484,-0.12127 -0.147795,-0.0417 -0.299379,-0.0417 -0.33917,0 -0.526756,0.21601 -0.187585,0.21411 -0.187585,0.60255 0,0.38843 0.187585,0.60444 0.187586,0.21411 0.526756,0.21411 0.151584,0 0.299379,-0.0398 0.14969,-0.0417 0.297484,-0.12316 v 0.32212 q -0.1459,0.0682 -0.303168,0.10232 -0.155374,0.0341 -0.331591,0.0341 -0.479386,0 -0.761712,-0.30127 -0.282326,-0.30127 -0.282326,-0.81287 0,-0.51918 0.284221,-0.81666 0.286116,-0.29749 0.782554,-0.29749 0.161059,0 0.314538,0.0341 0.153479,0.0322 0.297484,0.0985 z"
           style="fill:#8c8c8c"
           id="path13776" />
        <path
           d="m 97.503934,109.99955 v 1.28088 H 97.15529 v -1.26952 q 0,-0.30127 -0.117478,-0.45096 -0.117478,-0.14969 -0.352434,-0.14969 -0.282326,0 -0.445279,0.18001 -0.162953,0.18 -0.162953,0.49075 v 1.19941 h -0.350539 v -2.94831 h 0.350539 v 1.15583 q 0.125057,-0.19138 0.293695,-0.28612 0.170532,-0.0947 0.392224,-0.0947 0.365698,0 0.553283,0.22738 0.187586,0.22548 0.187586,0.66508 z"
           style="fill:#8c8c8c"
           id="path13778" />
        <path
           d="m 99.163782,110.21366 q -0.422541,0 -0.585494,0.0966 -0.162953,0.0966 -0.162953,0.3297 0,0.18569 0.121267,0.29559 0.123162,0.108 0.333486,0.108 0.289905,0 0.464227,-0.20464 0.176217,-0.20653 0.176217,-0.54759 v -0.0777 z m 0.695394,-0.14401 v 1.21078 h -0.348644 v -0.32211 q -0.119373,0.19327 -0.297485,0.28611 -0.178111,0.091 -0.435805,0.091 -0.325906,0 -0.519176,-0.1819 -0.191375,-0.18379 -0.191375,-0.49075 0,-0.35812 0.238745,-0.54002 0.24064,-0.1819 0.716236,-0.1819 h 0.48886 v -0.0341 q 0,-0.24064 -0.159164,-0.37138 -0.157269,-0.13264 -0.443384,-0.13264 -0.181901,0 -0.354329,0.0436 -0.172427,0.0436 -0.33159,0.13074 v -0.32211 q 0.191375,-0.0739 0.371381,-0.1099 0.180007,-0.0379 0.350539,-0.0379 0.460438,0 0.687814,0.23875 0.227377,0.23874 0.227377,0.72381 z"
           style="fill:#8c8c8c"
           id="path13780" />
        <path
           d="m 102.34137,109.99955 v 1.28088 h -0.34864 v -1.26952 q 0,-0.30127 -0.11748,-0.45096 -0.11748,-0.14969 -0.35244,-0.14969 -0.28232,0 -0.44527,0.18001 -0.16296,0.18 -0.16296,0.49075 v 1.19941 h -0.35054 v -2.12218 h 0.35054 v 0.3297 q 0.12506,-0.19138 0.2937,-0.28612 0.17053,-0.0947 0.39222,-0.0947 0.3657,0 0.55328,0.22738 0.18759,0.22548 0.18759,0.66508 z"
           style="fill:#8c8c8c"
           id="path13782" />
        <path
           d="m 104.80083,109.99955 v 1.28088 h -0.34865 v -1.26952 q 0,-0.30127 -0.11748,-0.45096 -0.11747,-0.14969 -0.35243,-0.14969 -0.28232,0 -0.44528,0.18001 -0.16295,0.18 -0.16295,0.49075 v 1.19941 h -0.35054 v -2.12218 h 0.35054 v 0.3297 q 0.12506,-0.19138 0.29369,-0.28612 0.17054,-0.0947 0.39223,-0.0947 0.3657,0 0.55328,0.22738 0.18759,0.22548 0.18759,0.66508 z"
           style="fill:#8c8c8c"
           id="path13784" />
        <path
           d="m 107.31144,110.13218 v 0.17053 h -1.603 q 0.0227,0.36002 0.21601,0.5495 0.19516,0.18758 0.54191,0.18758 0.20085,0 0.38843,-0.0493 0.18949,-0.0493 0.37518,-0.1478 v 0.3297 q -0.18759,0.0796 -0.38465,0.12127 -0.19706,0.0417 -0.3998,0.0417 -0.50781,0 -0.80529,-0.29559 -0.29559,-0.29559 -0.29559,-0.7996 0,-0.52108 0.28043,-0.82614 0.28232,-0.30696 0.75981,-0.30696 0.42823,0 0.67645,0.27664 0.25011,0.27475 0.25011,0.74845 z m -0.34864,-0.10232 q -0.004,-0.28611 -0.16106,-0.45665 -0.15537,-0.17053 -0.41307,-0.17053 -0.2918,0 -0.46801,0.16485 -0.17433,0.16485 -0.20085,0.46423 z"
           style="fill:#8c8c8c"
           id="path13786" />
        <path
           d="m 107.88367,108.33212 h 0.34865 v 2.94831 h -0.34865 z"
           style="fill:#8c8c8c"
           id="path13788" />
        <path
           d="m 110.31471,109.22078 v 0.3297 q -0.1478,-0.0758 -0.30696,-0.11369 -0.15916,-0.0379 -0.3297,-0.0379 -0.25958,0 -0.39033,0.0796 -0.12884,0.0796 -0.12884,0.23875 0,0.12127 0.0928,0.19138 0.0928,0.0682 0.37328,0.13074 l 0.11937,0.0265 q 0.37138,0.0796 0.52676,0.22549 0.15727,0.144 0.15727,0.40359 0,0.29559 -0.23496,0.46802 -0.23306,0.17242 -0.64234,0.17242 -0.17053,0 -0.35622,-0.0341 -0.1838,-0.0322 -0.38844,-0.0985 v -0.36002 q 0.19327,0.10043 0.38086,0.15159 0.18758,0.0493 0.37138,0.0493 0.24633,0 0.37896,-0.0834 0.13264,-0.0853 0.13264,-0.23874 0,-0.14211 -0.0966,-0.21791 -0.0947,-0.0758 -0.41875,-0.1459 l -0.12127,-0.0284 q -0.32401,-0.0682 -0.46801,-0.20843 -0.14401,-0.14211 -0.14401,-0.38843 0,-0.29938 0.21222,-0.46233 0.21222,-0.16296 0.60255,-0.16296 0.19327,0 0.3638,0.0284 0.17053,0.0284 0.31454,0.0853 z"
           style="fill:#8c8c8c"
           id="path13790" />
      </g>
    </g>
    <g
       id="g13413">
      <rect
         style="fill:#55a868;stroke:#55a868;stroke-width:1.32291;stroke-linecap:round;stroke-miterlimit:4;stroke-dasharray:none"
         id="rect942"
         width="66.131432"
         height="18.372215"
         x="68.875847"
         y="141.44006" />
      <g
         aria-label="SUM"
         id="text946"
         style="font-size:8.46667px;line-height:1;font-family:Roboto;-inkscape-font-specification:'Roboto, Normal';letter-spacing:0px;word-spacing:0px;fill:#ffffff;stroke-width:0.264583">
        <path
           d="m 97.168725,147.7385 v 0.81442 q -0.475424,-0.22738 -0.897103,-0.339 -0.42168,-0.11162 -0.814421,-0.11162 -0.682129,0 -1.0542,0.26458 -0.367936,0.26459 -0.367936,0.75241 0,0.40928 0.243913,0.62012 0.248047,0.2067 0.93431,0.33486 l 0.504362,0.10336 q 0.93431,0.17776 1.376661,0.62838 0.446484,0.44649 0.446484,1.19889 0,0.89711 -0.603581,1.36013 -0.599447,0.46302 -1.761133,0.46302 -0.438216,0 -0.93431,-0.0992 -0.49196,-0.0992 -1.021127,-0.29352 v -0.8599 q 0.508496,0.28526 0.996322,0.42995 0.487826,0.14469 0.959115,0.14469 0.715202,0 1.103809,-0.28112 0.388607,-0.28112 0.388607,-0.80201 0,-0.45476 -0.28112,-0.71107 -0.276986,-0.25632 -0.91364,-0.38447 l -0.508496,-0.0992 q -0.93431,-0.18604 -1.351856,-0.58291 -0.417546,-0.39688 -0.417546,-1.10381 0,-0.81856 0.574642,-1.28985 0.578777,-0.47129 1.591635,-0.47129 0.434082,0 0.884701,0.0786 0.450619,0.0786 0.921908,0.23565 z"
           id="path13793" />
        <path
           d="m 98.747957,147.53592 h 0.839226 v 3.74965 q 0,0.99219 0.359668,1.4304 0.359669,0.43408 1.165819,0.43408 0.80202,0 1.16169,-0.43408 0.35967,-0.43821 0.35967,-1.4304 v -3.74965 h 0.83922 v 3.853 q 0,1.20716 -0.59944,1.82315 -0.59532,0.61598 -1.76114,0.61598 -1.169953,0 -1.7694,-0.61598 -0.595313,-0.61599 -0.595313,-1.82315 z"
           id="path13795" />
        <path
           d="m 105.04008,147.53592 h 1.24437 l 1.5751,4.20027 1.58337,-4.20027 h 1.24436 v 6.17224 h -0.81442 v -5.41983 l -1.59163,4.23334 H 107.442 l -1.59163,-4.23334 v 5.41983 h -0.81029 z"
           id="path13797" />
      </g>
    </g>
    <g
       id="g13433">
      <rect
         y="213.4068"
         x="68.875847"
         height="18.372215"
         width="66.131432"
         id="rect952"
         style="fill:#4c72b0;stroke:#4c72b0;stroke-width:1.32291;stroke-linecap:round;stroke-miterlimit:4;stroke-dasharray:none" />
      <g
         aria-label="POST"
         id="text956"
         style="font-size:8.46667px;line-height:1;font-family:Roboto;-inkscape-font-specification:'Roboto, Normal';letter-spacing:0px;word-spacing:0px;fill:#ffffff;stroke-width:0.264583">
        <path
           d="m 92.021754,220.18892 v 2.31924 h 1.050066 q 0.58291,0 0.901237,-0.30179 0.318327,-0.30179 0.318327,-0.85989 0,-0.55398 -0.318327,-0.85577 -0.318327,-0.30179 -0.901237,-0.30179 z m -0.835091,-0.68626 h 1.885157 q 1.037663,0 1.56683,0.47129 0.533301,0.46716 0.533301,1.37253 0,0.91364 -0.533301,1.38079 -0.529167,0.46716 -1.56683,0.46716 h -1.050066 v 2.48047 h -0.835091 z"
           id="path13800" />
        <path
           d="m 98.797571,220.06903 q -0.909506,0 -1.446941,0.678 -0.533301,0.67799 -0.533301,1.84795 0,1.16582 0.533301,1.84382 0.537435,0.67799 1.446941,0.67799 0.909505,0 1.438669,-0.67799 0.5333,-0.678 0.5333,-1.84382 0,-1.16996 -0.5333,-1.84795 -0.529164,-0.678 -1.438669,-0.678 z m 0,-0.67799 q 1.298109,0 2.075329,0.8723 0.77721,0.86816 0.77721,2.33164 0,1.45934 -0.77721,2.33164 -0.77722,0.86817 -2.075329,0.86817 -1.302247,0 -2.083595,-0.86817 -0.777214,-0.86816 -0.777214,-2.33164 0,-1.46348 0.777214,-2.33164 0.781348,-0.8723 2.083595,-0.8723 z"
           id="path13802" />
        <path
           d="m 106.65653,219.70523 v 0.81442 q -0.47543,-0.22737 -0.89711,-0.33899 -0.42168,-0.11163 -0.81442,-0.11163 -0.68213,0 -1.0542,0.26459 -0.36793,0.26458 -0.36793,0.75241 0,0.40927 0.24391,0.62011 0.24805,0.20671 0.93431,0.33487 l 0.50436,0.10335 q 0.93431,0.17777 1.37666,0.62839 0.44649,0.44648 0.44649,1.19889 0,0.8971 -0.60359,1.36012 -0.59944,0.46303 -1.76113,0.46303 -0.43821,0 -0.93431,-0.0992 -0.49196,-0.0992 -1.02113,-0.29353 v -0.85989 q 0.5085,0.28525 0.99633,0.42995 0.48782,0.14469 0.95911,0.14469 0.7152,0 1.10381,-0.28112 0.38861,-0.28112 0.38861,-0.80202 0,-0.45475 -0.28112,-0.71107 -0.27699,-0.25631 -0.91364,-0.38447 l -0.5085,-0.0992 q -0.93431,-0.18603 -1.35185,-0.58291 -0.41755,-0.39687 -0.41755,-1.10381 0,-0.81855 0.57464,-1.28984 0.57878,-0.47129 1.59164,-0.47129 0.43408,0 0.8847,0.0786 0.45062,0.0785 0.92191,0.23564 z"
           id="path13804" />
        <path
           d="m 107.47508,219.50266 h 5.22139 v 0.7028 h -2.19108 v 5.46944 h -0.83923 v -5.46944 h -2.19108 z"
           id="path13806" />
      </g>
    </g>
    <g
       id="g13425">
      <rect
         style="fill:none;stroke:#8c8c8c;stroke-width:1.32291;stroke-linecap:round;stroke-miterlimit:4;stroke-dasharray:none"
         id="rect980"
         width="66.131432"
         height="25.449089"
         x="68.875847"
         y="173.89192" />
      <g
         aria-label="OUTPUT"
         id="text984"
         style="font-size:8.46667px;line-height:1;font-family:Roboto;-inkscape-font-specification:'Roboto, Normal';letter-spacing:0px;word-spacing:0px;stroke-width:0.264583">
        <path
           d="m 87.773945,181.2342 q -0.909505,0 -1.44694,0.67799 -0.533301,0.678 -0.533301,1.84795 0,1.16582 0.533301,1.84382 0.537435,0.67799 1.44694,0.67799 0.909506,0 1.438673,-0.67799 0.533301,-0.678 0.533301,-1.84382 0,-1.16995 -0.533301,-1.84795 -0.529167,-0.67799 -1.438673,-0.67799 z m 0,-0.678 q 1.298113,0 2.075327,0.8723 0.777214,0.86816 0.777214,2.33164 0,1.45934 -0.777214,2.33164 -0.777214,0.86817 -2.075327,0.86817 -1.302246,0 -2.083594,-0.86817 -0.777214,-0.86816 -0.777214,-2.33164 0,-1.46348 0.777214,-2.33164 0.781348,-0.8723 2.083594,-0.8723 z"
           id="path13809" />
        <path
           d="m 91.837782,180.66782 h 0.839225 v 3.74965 q 0,0.99218 0.359669,1.4304 0.359668,0.43408 1.16582,0.43408 0.802019,0 1.161687,-0.43408 0.359668,-0.43822 0.359668,-1.4304 v -3.74965 h 0.839226 v 3.853 q 0,1.20716 -0.599447,1.82314 -0.595313,0.61599 -1.761134,0.61599 -1.169955,0 -1.769401,-0.61599 -0.595313,-0.61598 -0.595313,-1.82314 z"
           id="path13811" />
        <path
           d="m 97.274145,180.66782 h 5.221385 v 0.7028 h -2.19108 v 5.46944 h -0.839224 v -5.46944 h -2.191081 z"
           id="path13813" />
        <path
           d="m 104.13678,181.35409 v 2.31923 h 1.05006 q 0.58291,0 0.90124,-0.30179 0.31833,-0.30179 0.31833,-0.85989 0,-0.55397 -0.31833,-0.85576 -0.31833,-0.30179 -0.90124,-0.30179 z m -0.83509,-0.68627 h 1.88515 q 1.03767,0 1.56683,0.47129 0.53331,0.46716 0.53331,1.37253 0,0.91364 -0.53331,1.38079 -0.52916,0.46716 -1.56683,0.46716 h -1.05006 v 2.48047 h -0.83509 z"
           id="path13815" />
        <path
           d="m 108.31224,180.66782 h 0.83922 v 3.74965 q 0,0.99218 0.35967,1.4304 0.35967,0.43408 1.16582,0.43408 0.80202,0 1.16169,-0.43408 0.35966,-0.43822 0.35966,-1.4304 v -3.74965 h 0.83923 v 3.853 q 0,1.20716 -0.59945,1.82314 -0.59531,0.61599 -1.76113,0.61599 -1.16996,0 -1.7694,-0.61599 -0.59531,-0.61598 -0.59531,-1.82314 z"
           id="path13817" />
        <path
           d="m 113.7486,180.66782 h 5.22139 v 0.7028 h -2.19108 v 5.46944 h -0.83923 v -5.46944 h -2.19108 z"
           id="path13819" />
      </g>
      <g
         aria-label="channels"
         id="text912"
         style="font-size:3.88056px;line-height:1;font-family:Roboto;-inkscape-font-specification:'Roboto, Normal';letter-spacing:0px;word-spacing:0px;stroke-width:0.264583">
        <path
           d="m 95.133533,194.5093 v 0.3259 q -0.147794,-0.0815 -0.297484,-0.12126 -0.147795,-0.0417 -0.299379,-0.0417 -0.33917,0 -0.526756,0.21601 -0.187585,0.21411 -0.187585,0.60255 0,0.38843 0.187585,0.60444 0.187586,0.21411 0.526756,0.21411 0.151584,0 0.299379,-0.0398 0.14969,-0.0417 0.297484,-0.12316 v 0.32212 q -0.1459,0.0682 -0.303168,0.10232 -0.155374,0.0341 -0.331591,0.0341 -0.479386,0 -0.761712,-0.30127 -0.282326,-0.30128 -0.282326,-0.81287 0,-0.51918 0.284221,-0.81666 0.286116,-0.29749 0.782554,-0.29749 0.161059,0 0.314538,0.0341 0.153479,0.0322 0.297484,0.0985 z"
           style="fill:#8c8c8c"
           id="path13822" />
        <path
           d="M 97.503934,195.26912 V 196.55 H 97.15529 v -1.26952 q 0,-0.30127 -0.117478,-0.45096 -0.117478,-0.14969 -0.352434,-0.14969 -0.282326,0 -0.445279,0.18001 -0.162953,0.18 -0.162953,0.49075 V 196.55 h -0.350539 v -2.94831 h 0.350539 v 1.15583 q 0.125057,-0.19138 0.293695,-0.28612 0.170532,-0.0947 0.392224,-0.0947 0.365698,0 0.553283,0.22738 0.187586,0.22548 0.187586,0.66508 z"
           style="fill:#8c8c8c"
           id="path13824" />
        <path
           d="m 99.163782,195.48323 q -0.422541,0 -0.585494,0.0966 -0.162953,0.0966 -0.162953,0.3297 0,0.18569 0.121267,0.29559 0.123162,0.108 0.333486,0.108 0.289905,0 0.464227,-0.20464 0.176217,-0.20653 0.176217,-0.54759 v -0.0777 z m 0.695394,-0.14401 V 196.55 h -0.348644 v -0.32211 q -0.119373,0.19327 -0.297485,0.28611 -0.178111,0.0909 -0.435805,0.0909 -0.325906,0 -0.519176,-0.1819 -0.191375,-0.18379 -0.191375,-0.49075 0,-0.35812 0.238745,-0.54002 0.24064,-0.1819 0.716236,-0.1819 h 0.48886 v -0.0341 q 0,-0.24064 -0.159164,-0.37138 -0.157269,-0.13264 -0.443384,-0.13264 -0.181901,0 -0.354329,0.0436 -0.172427,0.0436 -0.33159,0.13074 v -0.32211 q 0.191375,-0.0739 0.371381,-0.1099 0.180007,-0.0379 0.350539,-0.0379 0.460438,0 0.687814,0.23875 0.227377,0.23874 0.227377,0.72381 z"
           style="fill:#8c8c8c"
           id="path13826" />
        <path
           d="M 102.34137,195.26912 V 196.55 h -0.34864 v -1.26952 q 0,-0.30127 -0.11748,-0.45096 -0.11748,-0.14969 -0.35244,-0.14969 -0.28232,0 -0.44527,0.18001 -0.16296,0.18 -0.16296,0.49075 V 196.55 h -0.35054 v -2.12218 h 0.35054 v 0.3297 q 0.12506,-0.19138 0.2937,-0.28612 0.17053,-0.0947 0.39222,-0.0947 0.3657,0 0.55328,0.22738 0.18759,0.22548 0.18759,0.66508 z"
           style="fill:#8c8c8c"
           id="path13828" />
        <path
           d="M 104.80083,195.26912 V 196.55 h -0.34865 v -1.26952 q 0,-0.30127 -0.11748,-0.45096 -0.11747,-0.14969 -0.35243,-0.14969 -0.28232,0 -0.44528,0.18001 -0.16295,0.18 -0.16295,0.49075 V 196.55 h -0.35054 v -2.12218 h 0.35054 v 0.3297 q 0.12506,-0.19138 0.29369,-0.28612 0.17054,-0.0947 0.39223,-0.0947 0.3657,0 0.55328,0.22738 0.18759,0.22548 0.18759,0.66508 z"
           style="fill:#8c8c8c"
           id="path13830" />
        <path
           d="m 107.31144,195.40175 v 0.17053 h -1.603 q 0.0227,0.36002 0.21601,0.5495 0.19516,0.18758 0.54191,0.18758 0.20085,0 0.38843,-0.0493 0.18949,-0.0493 0.37518,-0.1478 v 0.3297 q -0.18759,0.0796 -0.38465,0.12127 -0.19706,0.0417 -0.3998,0.0417 -0.50781,0 -0.80529,-0.29559 -0.29559,-0.29559 -0.29559,-0.7996 0,-0.52108 0.28043,-0.82614 0.28232,-0.30696 0.75981,-0.30696 0.42823,0 0.67645,0.27664 0.25011,0.27475 0.25011,0.74845 z m -0.34864,-0.10232 q -0.004,-0.28611 -0.16106,-0.45665 -0.15537,-0.17053 -0.41307,-0.17053 -0.2918,0 -0.46801,0.16485 -0.17433,0.16485 -0.20085,0.46423 z"
           style="fill:#8c8c8c"
           id="path13832" />
        <path
           d="m 107.88367,193.60169 h 0.34865 V 196.55 h -0.34865 z"
           style="fill:#8c8c8c"
           id="path13834" />
        <path
           d="m 110.31471,194.49035 v 0.3297 q -0.1478,-0.0758 -0.30696,-0.11369 -0.15916,-0.0379 -0.3297,-0.0379 -0.25958,0 -0.39033,0.0796 -0.12884,0.0796 -0.12884,0.23875 0,0.12127 0.0928,0.19137 0.0928,0.0682 0.37328,0.13075 l 0.11937,0.0265 q 0.37138,0.0796 0.52676,0.22549 0.15727,0.144 0.15727,0.40359 0,0.29559 -0.23496,0.46802 -0.23306,0.17242 -0.64234,0.17242 -0.17053,0 -0.35622,-0.0341 -0.1838,-0.0322 -0.38844,-0.0985 v -0.36002 q 0.19327,0.10043 0.38086,0.15159 0.18758,0.0493 0.37138,0.0493 0.24633,0 0.37896,-0.0834 0.13264,-0.0853 0.13264,-0.23874 0,-0.14211 -0.0966,-0.21791 -0.0947,-0.0758 -0.41875,-0.1459 l -0.12127,-0.0284 q -0.32401,-0.0682 -0.46801,-0.20843 -0.14401,-0.14211 -0.14401,-0.38843 0,-0.29938 0.21222,-0.46233 0.21222,-0.16296 0.60255,-0.16296 0.19327,0 0.3638,0.0284 0.17053,0.0284 0.31454,0.0853 z"
           style="fill:#8c8c8c"
           id="path13836" />
      </g>
    </g>
    <g
       id="g13388">
      <rect
         y="88.696281"
         x="148.25085"
         height="25.449089"
         width="66.131432"
         id="rect954"
         style="fill:none;stroke:#8c8c8c;stroke-width:1.32291;stroke-linecap:round;stroke-miterlimit:4;stroke-dasharray:none" />
      <g
         aria-label="OUTPUT 3"
         id="text958"
         style="font-size:8.46667px;line-height:1;font-family:Roboto;-inkscape-font-specification:'Roboto, Normal';letter-spacing:0px;word-spacing:0px;stroke-width:0.264583">
        <path
           d="m 163.46134,96.038555 q -0.90951,0 -1.44694,0.677995 -0.5333,0.677995 -0.5333,1.84795 0,1.165821 0.5333,1.84382 0.53743,0.67799 1.44694,0.67799 0.9095,0 1.43867,-0.67799 0.5333,-0.677999 0.5333,-1.84382 0,-1.169955 -0.5333,-1.84795 -0.52917,-0.677995 -1.43867,-0.677995 z m 0,-0.677995 q 1.29811,0 2.07532,0.872299 0.77722,0.868164 0.77722,2.331641 0,1.45934 -0.77722,2.33164 -0.77721,0.86817 -2.07532,0.86817 -1.30225,0 -2.0836,-0.86817 -0.77721,-0.86816 -0.77721,-2.33164 0,-1.463477 0.77721,-2.331641 0.78135,-0.872299 2.0836,-0.872299 z"
           id="path13839" />
        <path
           d="m 167.52518,95.472181 h 0.83922 v 3.749644 q 0,0.992185 0.35967,1.430405 0.35967,0.43408 1.16582,0.43408 0.80202,0 1.16169,-0.43408 0.35966,-0.43822 0.35966,-1.430405 v -3.749644 h 0.83923 v 3.852997 q 0,1.207162 -0.59945,1.823142 -0.59531,0.61599 -1.76113,0.61599 -1.16996,0 -1.7694,-0.61599 -0.59531,-0.61598 -0.59531,-1.823142 z"
           id="path13841" />
        <path
           d="m 172.96154,95.472181 h 5.22139 v 0.7028 h -2.19109 v 5.469439 h -0.83922 v -5.469439 h -2.19108 z"
           id="path13843" />
        <path
           d="m 179.82417,96.158445 v 2.319239 h 1.05007 q 0.58291,0 0.90123,-0.301791 0.31833,-0.30179 0.31833,-0.859896 0,-0.553971 -0.31833,-0.855762 -0.31832,-0.30179 -0.90123,-0.30179 z m -0.83509,-0.686264 h 1.88516 q 1.03766,0 1.56683,0.47129 0.5333,0.467155 0.5333,1.372526 0,0.91364 -0.5333,1.380795 -0.52917,0.467155 -1.56683,0.467155 h -1.05007 v 2.480473 h -0.83509 z"
           id="path13845" />
        <path
           d="m 183.99963,95.472181 h 0.83922 v 3.749644 q 0,0.992185 0.35967,1.430405 0.35967,0.43408 1.16582,0.43408 0.80202,0 1.16169,-0.43408 0.35967,-0.43822 0.35967,-1.430405 v -3.749644 h 0.83922 v 3.852997 q 0,1.207162 -0.59944,1.823142 -0.59532,0.61599 -1.76114,0.61599 -1.16995,0 -1.7694,-0.61599 -0.59531,-0.61598 -0.59531,-1.823142 z"
           id="path13847" />
        <path
           d="m 189.43599,95.472181 h 5.22139 v 0.7028 h -2.19108 v 5.469439 h -0.83923 v -5.469439 h -2.19108 z"
           id="path13849" />
        <path
           d="m 200.75934,98.316453 q 0.59944,0.128158 0.93431,0.533301 0.339,0.405144 0.339,1.000456 0,0.91364 -0.62839,1.41387 -0.62839,0.50023 -1.78594,0.50023 -0.38861,0 -0.80202,-0.0785 -0.40927,-0.0744 -0.84749,-0.22738 v -0.80615 q 0.34726,0.20257 0.76068,0.30592 0.41341,0.10336 0.86403,0.10336 0.78548,0 1.19476,-0.31006 0.41341,-0.31006 0.41341,-0.90124 0,-0.545703 -0.38447,-0.851628 -0.38034,-0.310058 -1.06247,-0.310058 h -0.71934 V 98.00226 h 0.75241 q 0.61598,0 0.94258,-0.243912 0.32659,-0.248047 0.32659,-0.711068 0,-0.475424 -0.33899,-0.727605 -0.33487,-0.256315 -0.96325,-0.256315 -0.34313,0 -0.73588,0.07441 -0.39274,0.07441 -0.86403,0.231511 v -0.744141 q 0.47543,-0.132292 0.88884,-0.198438 0.41754,-0.06615 0.78548,-0.06615 0.95085,0 1.50482,0.434082 0.55397,0.429948 0.55397,1.165821 0,0.512631 -0.29352,0.868165 -0.29352,0.351399 -0.83509,0.487825 z"
           id="path13851" />
      </g>
      <g
         aria-label="channels"
         id="text916"
         style="font-size:3.88056px;line-height:1;font-family:Roboto;-inkscape-font-specification:'Roboto, Normal';letter-spacing:0px;word-spacing:0px;stroke-width:0.264583">
        <path
           d="m 174.50854,109.23973 v 0.32591 q -0.14779,-0.0815 -0.29748,-0.12127 -0.1478,-0.0417 -0.29938,-0.0417 -0.33917,0 -0.52676,0.21601 -0.18758,0.21411 -0.18758,0.60255 0,0.38843 0.18758,0.60444 0.18759,0.21411 0.52676,0.21411 0.15158,0 0.29938,-0.0398 0.14969,-0.0417 0.29748,-0.12316 v 0.32212 q -0.1459,0.0682 -0.30317,0.10232 -0.15537,0.0341 -0.33159,0.0341 -0.47938,0 -0.76171,-0.30127 -0.28233,-0.30127 -0.28233,-0.81287 0,-0.51918 0.28422,-0.81666 0.28612,-0.29749 0.78256,-0.29749 0.16106,0 0.31454,0.0341 0.15348,0.0322 0.29748,0.0985 z"
           style="fill:#8c8c8c"
           id="path13854" />
        <path
           d="m 176.87894,109.99955 v 1.28088 h -0.34864 v -1.26952 q 0,-0.30127 -0.11748,-0.45096 -0.11748,-0.14969 -0.35243,-0.14969 -0.28233,0 -0.44528,0.18001 -0.16296,0.18 -0.16296,0.49075 v 1.19941 h -0.35054 v -2.94831 h 0.35054 v 1.15583 q 0.12506,-0.19138 0.2937,-0.28612 0.17053,-0.0947 0.39222,-0.0947 0.3657,0 0.55329,0.22738 0.18758,0.22548 0.18758,0.66508 z"
           style="fill:#8c8c8c"
           id="path13856" />
        <path
           d="m 178.53879,110.21366 q -0.42254,0 -0.58549,0.0966 -0.16296,0.0966 -0.16296,0.3297 0,0.18569 0.12127,0.29559 0.12316,0.108 0.33349,0.108 0.2899,0 0.46422,-0.20464 0.17622,-0.20653 0.17622,-0.54759 v -0.0777 z m 0.69539,-0.14401 v 1.21078 h -0.34864 v -0.32211 q -0.11937,0.19327 -0.29748,0.28611 -0.17812,0.091 -0.43581,0.091 -0.32591,0 -0.51918,-0.1819 -0.19137,-0.18379 -0.19137,-0.49075 0,-0.35812 0.23874,-0.54002 0.24064,-0.1819 0.71624,-0.1819 h 0.48886 v -0.0341 q 0,-0.24064 -0.15916,-0.37138 -0.15727,-0.13264 -0.44339,-0.13264 -0.1819,0 -0.35433,0.0436 -0.17242,0.0436 -0.33159,0.13074 v -0.32211 q 0.19138,-0.0739 0.37138,-0.1099 0.18001,-0.0379 0.35054,-0.0379 0.46044,0 0.68782,0.23875 0.22737,0.23874 0.22737,0.72381 z"
           style="fill:#8c8c8c"
           id="path13858" />
        <path
           d="m 181.71638,109.99955 v 1.28088 h -0.34865 v -1.26952 q 0,-0.30127 -0.11747,-0.45096 -0.11748,-0.14969 -0.35244,-0.14969 -0.28232,0 -0.44528,0.18001 -0.16295,0.18 -0.16295,0.49075 v 1.19941 h -0.35054 v -2.12218 h 0.35054 v 0.3297 q 0.12506,-0.19138 0.29369,-0.28612 0.17054,-0.0947 0.39223,-0.0947 0.3657,0 0.55328,0.22738 0.18759,0.22548 0.18759,0.66508 z"
           style="fill:#8c8c8c"
           id="path13860" />
        <path
           d="m 184.17583,109.99955 v 1.28088 h -0.34864 v -1.26952 q 0,-0.30127 -0.11748,-0.45096 -0.11748,-0.14969 -0.35243,-0.14969 -0.28233,0 -0.44528,0.18001 -0.16295,0.18 -0.16295,0.49075 v 1.19941 h -0.35054 v -2.12218 h 0.35054 v 0.3297 q 0.12505,-0.19138 0.29369,-0.28612 0.17053,-0.0947 0.39223,-0.0947 0.36569,0 0.55328,0.22738 0.18758,0.22548 0.18758,0.66508 z"
           style="fill:#8c8c8c"
           id="path13862" />
        <path
           d="m 186.68645,110.13218 v 0.17053 h -1.603 q 0.0227,0.36002 0.216,0.5495 0.19517,0.18758 0.54192,0.18758 0.20085,0 0.38843,-0.0493 0.18948,-0.0493 0.37517,-0.1478 v 0.3297 q -0.18758,0.0796 -0.38464,0.12127 -0.19706,0.0417 -0.39981,0.0417 -0.5078,0 -0.80529,-0.29559 -0.29559,-0.29559 -0.29559,-0.7996 0,-0.52108 0.28043,-0.82614 0.28233,-0.30696 0.75982,-0.30696 0.42823,0 0.67645,0.27664 0.25011,0.27475 0.25011,0.74845 z m -0.34864,-0.10232 q -0.004,-0.28611 -0.16106,-0.45665 -0.15538,-0.17053 -0.41307,-0.17053 -0.2918,0 -0.46802,0.16485 -0.17432,0.16485 -0.20085,0.46423 z"
           style="fill:#8c8c8c"
           id="path13864" />
        <path
           d="m 187.25868,108.33212 h 0.34865 v 2.94831 h -0.34865 z"
           style="fill:#8c8c8c"
           id="path13866" />
        <path
           d="m 189.68972,109.22078 v 0.3297 q -0.1478,-0.0758 -0.30696,-0.11369 -0.15917,-0.0379 -0.3297,-0.0379 -0.25959,0 -0.39033,0.0796 -0.12885,0.0796 -0.12885,0.23875 0,0.12127 0.0928,0.19138 0.0928,0.0682 0.37328,0.13074 l 0.11937,0.0265 q 0.37138,0.0796 0.52675,0.22549 0.15727,0.144 0.15727,0.40359 0,0.29559 -0.23495,0.46802 -0.23306,0.17242 -0.64234,0.17242 -0.17053,0 -0.35622,-0.0341 -0.1838,-0.0322 -0.38844,-0.0985 v -0.36002 q 0.19327,0.10043 0.38086,0.15159 0.18758,0.0493 0.37138,0.0493 0.24632,0 0.37896,-0.0834 0.13264,-0.0853 0.13264,-0.23874 0,-0.14211 -0.0966,-0.21791 -0.0947,-0.0758 -0.41875,-0.1459 l -0.12127,-0.0284 q -0.32401,-0.0682 -0.46802,-0.20843 -0.144,-0.14211 -0.144,-0.38843 0,-0.29938 0.21222,-0.46233 0.21222,-0.16296 0.60255,-0.16296 0.19327,0 0.3638,0.0284 0.17053,0.0284 0.31454,0.0853 z"
           style="fill:#8c8c8c"
           id="path13868" />
      </g>
    </g>
    <g
       id="g13405">
      <rect
         y="88.696281"
         x="-10.499157"
         height="25.449089"
         width="66.131432"
         id="rect938"
         style="fill:none;stroke:#8c8c8c;stroke-width:1.32291;stroke-linecap:round;stroke-miterlimit:4;stroke-dasharray:none" />
      <g
         aria-label="OUTPUT 1"
         id="text942"
         style="font-size:8.46667px;line-height:1;font-family:Roboto;-inkscape-font-specification:'Roboto, Normal';letter-spacing:0px;word-spacing:0px;stroke-width:0.264583">
        <path
           d="m 4.7629969,95.986881 q -0.9095056,0 -1.4469407,0.677995 -0.533301,0.677995 -0.533301,1.84795 0,1.165821 0.533301,1.843814 0.5374351,0.678 1.4469407,0.678 0.9095056,0 1.4386724,-0.678 0.533301,-0.677993 0.533301,-1.843814 0,-1.169955 -0.533301,-1.84795 -0.5291668,-0.677995 -1.4386724,-0.677995 z m 0,-0.677995 q 1.2981125,0 2.0753263,0.872299 0.7772139,0.868164 0.7772139,2.331641 0,1.459343 -0.7772139,2.331644 -0.7772138,0.86816 -2.0753263,0.86816 -1.3022466,0 -2.0835946,-0.86816 -0.7772138,-0.868167 -0.7772138,-2.331644 0,-1.463477 0.7772138,-2.331641 0.781348,-0.872299 2.0835946,-0.872299 z"
           id="path13871" />
        <path
           d="m 8.8268333,95.420507 h 0.8392256 v 3.749644 q 0,0.992189 0.3596681,1.430409 0.359668,0.43408 1.165821,0.43408 0.802018,0 1.161686,-0.43408 0.359669,-0.43822 0.359669,-1.430409 v -3.749644 h 0.839225 v 3.852997 q 0,1.207166 -0.599447,1.823146 -0.595312,0.61598 -1.761133,0.61598 -1.169955,0 -1.769402,-0.61598 -0.5953127,-0.61598 -0.5953127,-1.823146 z"
           id="path13873" />
        <path
           d="m 14.263196,95.420507 h 5.221389 v 0.7028 h -2.191082 v 5.469433 h -0.839225 v -5.469433 h -2.191082 z"
           id="path13875" />
        <path
           d="m 21.12583,96.106771 v 2.319239 h 1.050066 q 0.58291,0 0.901237,-0.301791 0.318327,-0.30179 0.318327,-0.859896 0,-0.553971 -0.318327,-0.855762 -0.318327,-0.30179 -0.901237,-0.30179 z m -0.835091,-0.686264 h 1.885157 q 1.037663,0 1.56683,0.47129 0.533301,0.467155 0.533301,1.372526 0,0.91364 -0.533301,1.380795 -0.529167,0.467155 -1.56683,0.467155 H 21.12583 v 2.480467 h -0.835091 z"
           id="path13877" />
        <path
           d="m 25.301287,95.420507 h 0.839225 v 3.749644 q 0,0.992189 0.359668,1.430409 0.359669,0.43408 1.165821,0.43408 0.802019,0 1.161687,-0.43408 0.359668,-0.43822 0.359668,-1.430409 v -3.749644 h 0.839226 v 3.852997 q 0,1.207166 -0.599447,1.823146 -0.595313,0.61598 -1.761134,0.61598 -1.169955,0 -1.769402,-0.61598 -0.595312,-0.61598 -0.595312,-1.823146 z"
           id="path13879" />
        <path
           d="m 30.73765,95.420507 h 5.221389 v 0.7028 h -2.191082 v 5.469433 H 32.928732 V 96.123307 H 30.73765 Z"
           id="path13881" />
        <path
           d="m 39.675611,100.88994 h 1.364258 v -4.708755 l -1.484148,0.297656 v -0.760677 l 1.47588,-0.297657 h 0.835091 v 5.469433 h 1.364259 v 0.7028 h -3.55534 z"
           id="path13883" />
      </g>
      <g
         aria-label="channels"
         id="text893"
         style="font-size:3.88056px;line-height:1;font-family:Roboto;-inkscape-font-specification:'Roboto, Normal';letter-spacing:0px;word-spacing:0px;stroke-width:0.264583">
        <path
           d="m 15.758526,109.23973 v 0.32591 q -0.147795,-0.0815 -0.297485,-0.12127 -0.147794,-0.0417 -0.299379,-0.0417 -0.33917,0 -0.526755,0.21601 -0.187586,0.21411 -0.187586,0.60255 0,0.38843 0.187586,0.60444 0.187585,0.21411 0.526755,0.21411 0.151585,0 0.299379,-0.0398 0.14969,-0.0417 0.297485,-0.12316 v 0.32212 q -0.1459,0.0682 -0.303169,0.10232 -0.155374,0.0341 -0.331591,0.0341 -0.479385,0 -0.761711,-0.30127 -0.282326,-0.30127 -0.282326,-0.81287 0,-0.51918 0.28422,-0.81666 0.286116,-0.29749 0.782555,-0.29749 0.161058,0 0.314537,0.0341 0.15348,0.0322 0.297485,0.0985 z"
           style="fill:#8c8c8c"
           id="path13886" />
        <path
           d="m 18.128926,109.99955 v 1.28088 h -0.348644 v -1.26952 q 0,-0.30127 -0.117478,-0.45096 -0.117478,-0.14969 -0.352433,-0.14969 -0.282326,0 -0.44528,0.18001 -0.162953,0.18 -0.162953,0.49075 v 1.19941 h -0.350539 v -2.94831 h 0.350539 v 1.15583 q 0.125057,-0.19138 0.293695,-0.28612 0.170532,-0.0947 0.392225,-0.0947 0.365697,0 0.553283,0.22738 0.187585,0.22548 0.187585,0.66508 z"
           style="fill:#8c8c8c"
           id="path13888" />
        <path
           d="m 19.788775,110.21366 q -0.422542,0 -0.585495,0.0966 -0.162953,0.0966 -0.162953,0.3297 0,0.18569 0.121268,0.29559 0.123162,0.108 0.333485,0.108 0.289905,0 0.464227,-0.20464 0.176217,-0.20653 0.176217,-0.54759 v -0.0777 z m 0.695393,-0.14401 v 1.21078 h -0.348644 v -0.32211 q -0.119373,0.19327 -0.297484,0.28611 -0.178112,0.091 -0.435805,0.091 -0.325907,0 -0.519177,-0.1819 -0.191375,-0.18379 -0.191375,-0.49075 0,-0.35812 0.238745,-0.54002 0.240641,-0.1819 0.716236,-0.1819 h 0.48886 v -0.0341 q 0,-0.24064 -0.159163,-0.37138 -0.157269,-0.13264 -0.443385,-0.13264 -0.181901,0 -0.354328,0.0436 -0.172427,0.0436 -0.331591,0.13074 v -0.32211 q 0.191375,-0.0739 0.371382,-0.1099 0.180006,-0.0379 0.350539,-0.0379 0.460437,0 0.687814,0.23875 0.227376,0.23874 0.227376,0.72381 z"
           style="fill:#8c8c8c"
           id="path13890" />
        <path
           d="m 22.966363,109.99955 v 1.28088 h -0.348644 v -1.26952 q 0,-0.30127 -0.117478,-0.45096 -0.117478,-0.14969 -0.352434,-0.14969 -0.282326,0 -0.445279,0.18001 -0.162953,0.18 -0.162953,0.49075 v 1.19941 h -0.350539 v -2.12218 h 0.350539 v 0.3297 q 0.125057,-0.19138 0.293694,-0.28612 0.170533,-0.0947 0.392225,-0.0947 0.365697,0 0.553283,0.22738 0.187586,0.22548 0.187586,0.66508 z"
           style="fill:#8c8c8c"
           id="path13892" />
        <path
           d="m 25.425819,109.99955 v 1.28088 h -0.348644 v -1.26952 q 0,-0.30127 -0.117478,-0.45096 -0.117478,-0.14969 -0.352434,-0.14969 -0.282325,0 -0.445279,0.18001 -0.162953,0.18 -0.162953,0.49075 v 1.19941 h -0.350539 v -2.12218 h 0.350539 v 0.3297 q 0.125057,-0.19138 0.293695,-0.28612 0.170532,-0.0947 0.392224,-0.0947 0.365698,0 0.553283,0.22738 0.187586,0.22548 0.187586,0.66508 z"
           style="fill:#8c8c8c"
           id="path13894" />
        <path
           d="m 27.936435,110.13218 v 0.17053 h -1.603004 q 0.02274,0.36002 0.216007,0.5495 0.195165,0.18758 0.541914,0.18758 0.20085,0 0.388435,-0.0493 0.189481,-0.0493 0.375172,-0.1478 v 0.3297 q -0.187586,0.0796 -0.384646,0.12127 -0.197059,0.0417 -0.399803,0.0417 -0.507808,0 -0.805292,-0.29559 -0.29559,-0.29559 -0.29559,-0.7996 0,-0.52108 0.280431,-0.82614 0.282326,-0.30696 0.759817,-0.30696 0.428226,0 0.676445,0.27664 0.250114,0.27475 0.250114,0.74845 z m -0.348644,-0.10232 q -0.0038,-0.28611 -0.161058,-0.45665 -0.155374,-0.17053 -0.413068,-0.17053 -0.2918,0 -0.468016,0.16485 -0.174322,0.16485 -0.20085,0.46423 z"
           style="fill:#8c8c8c"
           id="path13896" />
        <path
           d="m 28.508666,108.33212 h 0.348644 v 2.94831 h -0.348644 z"
           style="fill:#8c8c8c"
           id="path13898" />
        <path
           d="m 30.9397,109.22078 v 0.3297 q -0.147795,-0.0758 -0.306958,-0.11369 -0.159164,-0.0379 -0.329696,-0.0379 -0.259589,0 -0.39033,0.0796 -0.128847,0.0796 -0.128847,0.23875 0,0.12127 0.09285,0.19138 0.09285,0.0682 0.373276,0.13074 l 0.119373,0.0265 q 0.371382,0.0796 0.526756,0.22549 0.157268,0.144 0.157268,0.40359 0,0.29559 -0.234955,0.46802 -0.233061,0.17242 -0.642339,0.17242 -0.170533,0 -0.356223,-0.0341 -0.183797,-0.0322 -0.388435,-0.0985 v -0.36002 q 0.19327,0.10043 0.380855,0.15159 0.187586,0.0493 0.371382,0.0493 0.246325,0 0.378961,-0.0834 0.132636,-0.0853 0.132636,-0.23874 0,-0.14211 -0.09663,-0.21791 -0.09474,-0.0758 -0.418752,-0.1459 l -0.121267,-0.0284 q -0.324012,-0.0682 -0.468017,-0.20843 -0.144005,-0.14211 -0.144005,-0.38843 0,-0.29938 0.212218,-0.46233 0.212218,-0.16296 0.602548,-0.16296 0.19327,0 0.363802,0.0284 0.170533,0.0284 0.314538,0.0853 z"
           style="fill:#8c8c8c"
           id="path13900" />
      </g>
    </g>
    <g
       id="g13445">
      <rect
         y="245.8586"
         x="68.875847"
         height="25.449089"
         width="66.131432"
         id="rect905"
         style="fill:none;stroke:#000000;stroke-width:1.32291;stroke-linecap:round;stroke-miterlimit:4;stroke-dasharray:none" />
      <g
         aria-label="OUTPUT POST"
         id="text909"
         style="font-size:8.46667px;line-height:1;font-family:Roboto;-inkscape-font-specification:'Roboto, Normal';letter-spacing:0px;word-spacing:0px;stroke-width:0.264583">
        <path
           d="m 75.270314,253.20087 q -0.909506,0 -1.446941,0.678 -0.533301,0.67799 -0.533301,1.84795 0,1.16582 0.533301,1.84381 0.537435,0.678 1.446941,0.678 0.909505,0 1.438672,-0.678 0.533301,-0.67799 0.533301,-1.84381 0,-1.16996 -0.533301,-1.84795 -0.529167,-0.678 -1.438672,-0.678 z m 0,-0.67799 q 1.298112,0 2.075326,0.87229 0.777214,0.86817 0.777214,2.33165 0,1.45934 -0.777214,2.33164 -0.777214,0.86816 -2.075326,0.86816 -1.302247,0 -2.083595,-0.86816 -0.777214,-0.86817 -0.777214,-2.33164 0,-1.46348 0.777214,-2.33165 0.781348,-0.87229 2.083595,-0.87229 z"
           id="path13903" />
        <path
           d="m 79.33415,252.6345 h 0.839226 v 3.74964 q 0,0.99219 0.359668,1.4304 0.359668,0.43409 1.165821,0.43409 0.802018,0 1.161686,-0.43409 0.359669,-0.43821 0.359669,-1.4304 v -3.74964 h 0.839225 v 3.85299 q 0,1.20716 -0.599447,1.82315 -0.595312,0.61598 -1.761133,0.61598 -1.169955,0 -1.769402,-0.61598 -0.595313,-0.61599 -0.595313,-1.82315 z"
           id="path13905" />
        <path
           d="m 84.770513,252.6345 h 5.221389 v 0.7028 H 87.80082 v 5.46943 h -0.839225 v -5.46943 h -2.191082 z"
           id="path13907" />
        <path
           d="M 91.633147,253.32076 V 255.64 h 1.050066 q 0.58291,0 0.901237,-0.30179 0.318327,-0.30179 0.318327,-0.8599 0,-0.55397 -0.318327,-0.85576 -0.318327,-0.30179 -0.901237,-0.30179 z m -0.835091,-0.68626 h 1.885157 q 1.037663,0 1.56683,0.47129 0.533301,0.46715 0.533301,1.37252 0,0.91364 -0.533301,1.3808 -0.529167,0.46715 -1.56683,0.46715 h -1.050066 v 2.48047 h -0.835091 z"
           id="path13909" />
        <path
           d="m 95.808604,252.6345 h 0.839225 v 3.74964 q 0,0.99219 0.359668,1.4304 0.359669,0.43409 1.165821,0.43409 0.802019,0 1.161687,-0.43409 0.359668,-0.43821 0.359668,-1.4304 v -3.74964 h 0.839227 v 3.85299 q 0,1.20716 -0.599448,1.82315 -0.595313,0.61598 -1.761134,0.61598 -1.169955,0 -1.769402,-0.61598 -0.595312,-0.61599 -0.595312,-1.82315 z"
           id="path13911" />
        <path
           d="m 101.24497,252.6345 h 5.22139 v 0.7028 h -2.19109 v 5.46943 h -0.83922 v -5.46943 h -2.19108 z"
           id="path13913" />
        <path
           d="M 110.79891,253.32076 V 255.64 h 1.05007 q 0.58291,0 0.90123,-0.30179 0.31833,-0.30179 0.31833,-0.8599 0,-0.55397 -0.31833,-0.85576 -0.31832,-0.30179 -0.90123,-0.30179 z m -0.83509,-0.68626 h 1.88516 q 1.03766,0 1.56683,0.47129 0.5333,0.46715 0.5333,1.37252 0,0.91364 -0.5333,1.3808 -0.52917,0.46715 -1.56683,0.46715 h -1.05007 v 2.48047 h -0.83509 z"
           id="path13915" />
        <path
           d="m 117.57473,253.20087 q -0.90951,0 -1.44694,0.678 -0.53331,0.67799 -0.53331,1.84795 0,1.16582 0.53331,1.84381 0.53743,0.678 1.44694,0.678 0.9095,0 1.43867,-0.678 0.5333,-0.67799 0.5333,-1.84381 0,-1.16996 -0.5333,-1.84795 -0.52917,-0.678 -1.43867,-0.678 z m 0,-0.67799 q 1.29811,0 2.07532,0.87229 0.77722,0.86817 0.77722,2.33165 0,1.45934 -0.77722,2.33164 -0.77721,0.86816 -2.07532,0.86816 -1.30225,0 -2.0836,-0.86816 -0.77721,-0.86817 -0.77721,-2.33164 0,-1.46348 0.77721,-2.33165 0.78135,-0.87229 2.0836,-0.87229 z"
           id="path13917" />
        <path
           d="m 125.43368,252.83707 v 0.81442 q -0.47542,-0.22738 -0.8971,-0.339 -0.42168,-0.11162 -0.81442,-0.11162 -0.68213,0 -1.0542,0.26458 -0.36794,0.26459 -0.36794,0.75241 0,0.40928 0.24392,0.62012 0.24804,0.20671 0.93431,0.33486 l 0.50436,0.10336 q 0.93431,0.17776 1.37666,0.62838 0.44648,0.44649 0.44648,1.1989 0,0.8971 -0.60358,1.36012 -0.59945,0.46302 -1.76113,0.46302 -0.43822,0 -0.93431,-0.0992 -0.49196,-0.0992 -1.02113,-0.29352 v -0.8599 q 0.5085,0.28526 0.99632,0.42995 0.48783,0.1447 0.95912,0.1447 0.7152,0 1.10381,-0.28112 0.3886,-0.28112 0.3886,-0.80202 0,-0.45475 -0.28112,-0.71107 -0.27698,-0.25632 -0.91364,-0.38447 l -0.50849,-0.0992 q -0.93431,-0.18604 -1.35186,-0.58291 -0.41754,-0.39688 -0.41754,-1.10381 0,-0.81856 0.57464,-1.28985 0.57878,-0.47128 1.59163,-0.47128 0.43409,0 0.8847,0.0785 0.45062,0.0786 0.92191,0.23565 z"
           id="path13919" />
        <path
           d="m 126.25224,252.6345 h 5.22139 v 0.7028 h -2.19109 v 5.46943 h -0.83922 v -5.46943 h -2.19108 z"
           id="path13921" />
      </g>
      <g
         aria-label="out_channels"
         id="text913"
         style="font-size:3.88056px;line-height:1;font-family:Roboto;-inkscape-font-specification:'Roboto, Normal';letter-spacing:0px;word-spacing:0px;stroke-width:0.264583">
        <path
           d="m 90.280938,266.63891 q -0.280431,0 -0.443384,0.2198 -0.162953,0.2179 -0.162953,0.59876 0,0.38085 0.161058,0.60065 0.162953,0.2179 0.445279,0.2179 0.278536,0 0.44149,-0.21979 0.162953,-0.2198 0.162953,-0.59876 0,-0.37707 -0.162953,-0.59687 -0.162954,-0.22169 -0.44149,-0.22169 z m 0,-0.29559 q 0.454753,0 0.714341,0.29559 0.259589,0.29559 0.259589,0.81856 0,0.52107 -0.259589,0.81855 -0.259588,0.29559 -0.714341,0.29559 -0.456648,0 -0.716236,-0.29559 -0.257694,-0.29748 -0.257694,-0.81855 0,-0.52297 0.257694,-0.81856 0.259588,-0.29559 0.716236,-0.29559 z"
           style="fill:#8c8c8c"
           id="path13924" />
        <path
           d="m 91.796782,267.67916 v -1.28468 h 0.348644 v 1.27142 q 0,0.30127 0.117478,0.45285 0.117478,0.14969 0.352433,0.14969 0.282326,0 0.44528,-0.18 0.164848,-0.18001 0.164848,-0.49076 v -1.2032 h 0.348644 v 2.12218 h -0.348644 v -0.3259 q -0.126952,0.19327 -0.29559,0.28801 -0.166743,0.0928 -0.388435,0.0928 -0.365697,0 -0.555178,-0.22737 -0.18948,-0.22738 -0.18948,-0.66508 z m 0.877294,-1.33584 z"
           style="fill:#8c8c8c"
           id="path13926" />
        <path
           d="m 94.637094,265.79193 v 0.60255 h 0.718131 v 0.27096 h -0.718131 v 1.15204 q 0,0.25959 0.07011,0.33349 0.072,0.0739 0.289905,0.0739 h 0.358118 v 0.2918 h -0.358118 q -0.403593,0 -0.557073,-0.14969 -0.153479,-0.15158 -0.153479,-0.54949 v -1.15204 h -0.255798 v -0.27096 h 0.255798 v -0.60255 z"
           style="fill:#8c8c8c"
           id="path13928" />
        <path
           d="m 97.426247,269.1609 v 0.27095 h -2.016073 v -0.27095 z"
           style="fill:#8c8c8c"
           id="path13930" />
        <path
           d="m 99.28126,266.47596 v 0.3259 q -0.147794,-0.0815 -0.297484,-0.12126 -0.147795,-0.0417 -0.299379,-0.0417 -0.33917,0 -0.526756,0.21601 -0.187585,0.21411 -0.187585,0.60255 0,0.38843 0.187585,0.60444 0.187586,0.21411 0.526756,0.21411 0.151584,0 0.299379,-0.0398 0.14969,-0.0417 0.297484,-0.12316 v 0.32212 q -0.1459,0.0682 -0.303168,0.10232 -0.155374,0.0341 -0.331591,0.0341 -0.479386,0 -0.761712,-0.30127 -0.282326,-0.30128 -0.282326,-0.81287 0,-0.51918 0.284221,-0.81666 0.286116,-0.29749 0.782554,-0.29749 0.161059,0 0.314538,0.0341 0.153479,0.0322 0.297484,0.0985 z"
           style="fill:#8c8c8c"
           id="path13932" />
        <path
           d="m 101.65166,267.23577 v 1.28089 h -0.34864 v -1.26952 q 0,-0.30127 -0.11748,-0.45096 -0.11748,-0.14969 -0.35244,-0.14969 -0.28232,0 -0.44527,0.18001 -0.16296,0.18 -0.16296,0.49075 v 1.19941 h -0.350536 v -2.94831 h 0.350536 v 1.15583 q 0.12506,-0.19138 0.2937,-0.28612 0.17053,-0.0947 0.39222,-0.0947 0.3657,0 0.55328,0.22738 0.18759,0.22548 0.18759,0.66507 z"
           style="fill:#8c8c8c"
           id="path13934" />
        <path
           d="m 103.31151,267.44989 q -0.42254,0 -0.5855,0.0966 -0.16295,0.0966 -0.16295,0.3297 0,0.18569 0.12127,0.29559 0.12316,0.108 0.33348,0.108 0.28991,0 0.46423,-0.20464 0.17622,-0.20653 0.17622,-0.5476 v -0.0777 z m 0.69539,-0.14401 v 1.21078 h -0.34864 v -0.32211 q -0.11937,0.19327 -0.29749,0.28611 -0.17811,0.091 -0.4358,0.091 -0.32591,0 -0.51918,-0.1819 -0.19137,-0.1838 -0.19137,-0.49075 0,-0.35812 0.23874,-0.54002 0.24064,-0.1819 0.71624,-0.1819 h 0.48886 v -0.0341 q 0,-0.24064 -0.15916,-0.37138 -0.15727,-0.13264 -0.44339,-0.13264 -0.1819,0 -0.35433,0.0436 -0.17242,0.0436 -0.33159,0.13074 v -0.32211 q 0.19138,-0.0739 0.37138,-0.1099 0.18001,-0.0379 0.35054,-0.0379 0.46044,0 0.68782,0.23875 0.22737,0.23874 0.22737,0.72381 z"
           style="fill:#8c8c8c"
           id="path13936" />
        <path
           d="m 106.4891,267.23577 v 1.28089 h -0.34865 v -1.26952 q 0,-0.30127 -0.11747,-0.45096 -0.11748,-0.14969 -0.35244,-0.14969 -0.28232,0 -0.44528,0.18001 -0.16295,0.18 -0.16295,0.49075 v 1.19941 h -0.35054 v -2.12218 h 0.35054 v 0.3297 q 0.12506,-0.19138 0.29369,-0.28612 0.17054,-0.0947 0.39223,-0.0947 0.3657,0 0.55328,0.22738 0.18759,0.22548 0.18759,0.66507 z"
           style="fill:#8c8c8c"
           id="path13938" />
        <path
           d="m 108.94855,267.23577 v 1.28089 h -0.34864 v -1.26952 q 0,-0.30127 -0.11748,-0.45096 -0.11748,-0.14969 -0.35243,-0.14969 -0.28233,0 -0.44528,0.18001 -0.16296,0.18 -0.16296,0.49075 v 1.19941 h -0.35053 v -2.12218 h 0.35053 v 0.3297 q 0.12506,-0.19138 0.2937,-0.28612 0.17053,-0.0947 0.39222,-0.0947 0.3657,0 0.55329,0.22738 0.18758,0.22548 0.18758,0.66507 z"
           style="fill:#8c8c8c"
           id="path13940" />
        <path
           d="m 111.45917,267.36841 v 0.17053 h -1.603 q 0.0227,0.36002 0.216,0.5495 0.19517,0.18758 0.54192,0.18758 0.20085,0 0.38843,-0.0493 0.18948,-0.0493 0.37517,-0.1478 v 0.3297 q -0.18758,0.0796 -0.38464,0.12127 -0.19706,0.0417 -0.39981,0.0417 -0.5078,0 -0.80529,-0.29559 -0.29559,-0.29559 -0.29559,-0.79961 0,-0.52107 0.28043,-0.82613 0.28233,-0.30696 0.75982,-0.30696 0.42823,0 0.67645,0.27664 0.25011,0.27475 0.25011,0.74845 z m -0.34864,-0.10232 q -0.004,-0.28611 -0.16106,-0.45665 -0.15538,-0.17053 -0.41307,-0.17053 -0.2918,0 -0.46802,0.16485 -0.17432,0.16485 -0.20085,0.46423 z"
           style="fill:#8c8c8c"
           id="path13942" />
        <path
           d="m 112.0314,265.56835 h 0.34864 v 2.94831 h -0.34864 z"
           style="fill:#8c8c8c"
           id="path13944" />
        <path
           d="m 114.46243,266.45701 v 0.3297 q -0.14779,-0.0758 -0.30695,-0.11369 -0.15917,-0.0379 -0.3297,-0.0379 -0.25959,0 -0.39033,0.0796 -0.12885,0.0796 -0.12885,0.23875 0,0.12127 0.0928,0.19137 0.0928,0.0682 0.37328,0.13075 l 0.11937,0.0265 q 0.37138,0.0796 0.52675,0.22548 0.15727,0.14401 0.15727,0.4036 0,0.29559 -0.23495,0.46801 -0.23306,0.17243 -0.64234,0.17243 -0.17053,0 -0.35622,-0.0341 -0.1838,-0.0322 -0.38844,-0.0985 v -0.36002 q 0.19327,0.10043 0.38086,0.15159 0.18758,0.0493 0.37138,0.0493 0.24632,0 0.37896,-0.0834 0.13263,-0.0853 0.13263,-0.23874 0,-0.14212 -0.0966,-0.21791 -0.0947,-0.0758 -0.41875,-0.1459 l -0.12127,-0.0284 q -0.32401,-0.0682 -0.46802,-0.20843 -0.144,-0.14211 -0.144,-0.38843 0,-0.29938 0.21222,-0.46234 0.21221,-0.16295 0.60254,-0.16295 0.19327,0 0.36381,0.0284 0.17053,0.0284 0.31453,0.0853 z"
           style="fill:#8c8c8c"
           id="path13946" />
      </g>
    </g>
  </g>
</svg>
